…
Mean and median number of steps taken each day

```r
actDayMM <- summarize(group_by(activity, date), stepsMean=mean(steps, na.rm = TRUE), stepsMedian=median(steps, na.rm = TRUE))
actDayMM
```

```
## # A tibble: 61 × 3
##          date stepsMean stepsMedian
##        <date>     <dbl>       <dbl>
## 1  2012-10-01       NaN          NA
## 2  2012-10-02   0.43750           0
## 3  2012-10-03  39.41667           0
## 4  2012-10-04  42.06944           0
## 5  2012-10-05  46.15972           0
## 6  2012-10-06  53.54167           0
## 7  2012-10-07  38.24653           0
## 8  2012-10-08       NaN          NA
## 9  2012-10-09  44.48264           0
## 10 2012-10-10  34.37500           0
## # ... with 51 more rows
```
…
The strategy to fill in these values consist in replacing them with the average value for the correspoding interval 

Let's create a new dataset that is equal to the original dataset but with the missing data filled in.


```r
actFIL <- activity
# filling in the missing values
for (i in actInt$interval) actFIL[stepsNA & actFIL$interval==i, 1] <- actInt[actInt$interval==i, "steps"]  
# validation
activity[actFIL$interval==5, ]
```

```
## # A tibble: 61 × 3
##    steps       date interval
##    <int>     <date>    <int>
## 1     NA 2012-10-01        5
## 2      0 2012-10-02        5
## 3      0 2012-10-03        5
## 4      0 2012-10-04        5
## 5      0 2012-10-05        5
## 6      0 2012-10-06        5
## 7      0 2012-10-07        5
## 8     NA 2012-10-08        5
## 9      0 2012-10-09        5
## 10    18 2012-10-10        5
## # ... with 51 more rows
```

```r
actFIL[actFIL$interval==5, ]
```

```
## # A tibble: 61 × 3
##         steps       date interval
##         <dbl>     <date>    <int>
## 1   0.3396226 2012-10-01        5
## 2   0.0000000 2012-10-02        5
## 3   0.0000000 2012-10-03        5
## 4   0.0000000 2012-10-04        5
## 5   0.0000000 2012-10-05        5
## 6   0.0000000 2012-10-06        5
## 7   0.0000000 2012-10-07        5
## 8   0.3396226 2012-10-08        5
## 9   0.0000000 2012-10-09        5
## 10 18.0000000 2012-10-10        5
## # ... with 51 more rows
```
…
Let's Calculate and report the mean and median total number of steps taken per day. 

```r
actFilDayMM <- summarize(group_by(actFIL, date), stepsMean=mean(steps, na.rm = TRUE), stepsMedian=median(steps, na.rm = TRUE))
actFilDayMM
```

```
## # A tibble: 61 × 3
##          date stepsMean stepsMedian
##        <date>     <dbl>       <dbl>
## 1  2012-10-01  37.38260    34.11321
## 2  2012-10-02   0.43750     0.00000
## 3  2012-10-03  39.41667     0.00000
## 4  2012-10-04  42.06944     0.00000
## 5  2012-10-05  46.15972     0.00000
## 6  2012-10-06  53.54167     0.00000
## 7  2012-10-07  38.24653     0.00000
## 8  2012-10-08  37.38260    34.11321
## 9  2012-10-09  44.48264     0.00000
## 10 2012-10-10  34.37500     0.00000
## # ... with 51 more rows
```
…
